# Name,age,phone,cars
Steve,23,555-2263,Kawasaki
Emre,25,555-6543,Voltwagan,555-7534
Katie Mc,22,55-8888,VWpolo
Katie Mo,25,555-7777,Tesla
Chloe,24,555-6666,Fiat Arbatha
Eimear,23,555-4444,Renault Cleo
Rachel,25,5555-6543,Delorean
Megan,22,555-3333,Fiat500
